     						
						Boolean functions
Questions to ask when creating functions:
1) what is the objective (return value)
2) what is the name?
3) what do i need?(parameters)
4) how are my parameters used?( reference and not reference)

						PALINDROME
						        parameter
bool(return value) palindrome(what is the name) (string word^) {what do i need} ..... HEADER
{
  for (ont i = 0; i < wordsize(); i++)
  {
   if (word [i]  !=word[word.size() -1 -i])
	return false;
  }
   return true;
} 



 int main()
{
 cout << "Enter a word";
 string text
 cin >> text;
 if ( palindrome (text) )
	cout << "palindrome";
 else
	cout << "Not palindrome";
 return 0;




						OVERLOADING FUNCTIONS
	
- More than / function has the same name but different  parameters.

int square (int x) 
{
 return x * x;
}
double square (double x ) 
{
 return x * x;
}



						FUNCTION PROTOTYPING 
a.k.a function declaration 

int square (int x );

// function declaration/function prototype.

double square (double);

bool palindrome (string);



						
						GLOBAL CONSTANTS

-Access to entire program
- Global variables not allowed
  - a variable declared outside of function





const double PI = 3.14;

int main ()
{
 cout << "Area" << PI * 2 * 5;
const double PI = 3.14 
double circumfrence ( double radius) 
{
 return 2 * PI * radius;
}
// if used more than once create a constant
 double area (double r)
{
 return PI * r * r;
}

// global constant
 double circumfrence(double);
 double are(double)

 int main ()
{


	circumfrence();

	

}

// function definitions





				     REFERENCE PARAMETER

-Circumfrence and area functions use pass-by-value parameters
- pass-by-reference: & EX: double name (double & x)
-reference accessed the original variable memory location

			ADD5 FUNCTION
-take 1 integer, add 5
NON REERENCE
 void add5 ( int x )
  ^------------
               |
               |
{             
x + = 5;       |
}
 int main ()   |
{              |
 int y = 3;    |
 add5(y);-------
 return 0;
}

		y	y
               --	-- => 8	
		3        3	


REFERENCE 
void add5 (int & x)  					int main()
{							{
 x+=5;							 int y = 3;
}							 add5(y);
							 return 0;	
							}






-create a function that swaps the value of 2 integers

void swap(int & x, int &y)
{
 int temp = x;
 x = y;
y = temp;
}

int main ()
{
 int x = 6
int y = 3
swap (x,y)











































